{
  "__type__": "cc.AnimationClip",
  "_name": "jump2",
  "_objFlags": 0,
  "_native": "",
  "_duration": 0.85,
  "sample": 60,
  "speed": 1,
  "wrapMode": 1,
  "curveData": {
    "comps": {
      "cc.Sprite": {
        "spriteFrame": [
          {
            "frame": 0,
            "value": {
              "__uuid__": "e4c26e06-71db-4f54-bd25-5f7fbf42af3c"
            }
          },
          {
            "frame": 0.16666666666666666,
            "value": {
              "__uuid__": "77a75cd2-b245-4d44-a81f-04efb1439b69"
            }
          },
          {
            "frame": 0.3333333333333333,
            "value": {
              "__uuid__": "02e13d54-6596-4dd0-898d-52821b9d9d5f"
            }
          },
          {
            "frame": 0.5,
            "value": {
              "__uuid__": "a6fc3a21-ea43-475f-a834-f10a9d530f46"
            }
          },
          {
            "frame": 0.6666666666666666,
            "value": {
              "__uuid__": "c35a5970-b1d2-4476-9e86-0e8b3490d065"
            }
          },
          {
            "frame": 0.8333333333333334,
            "value": {
              "__uuid__": "5c87e5c0-81c4-4e28-ba7f-6f7ce1d6c705"
            }
          }
        ]
      }
    }
  },
  "events": []
}