{
  "__type__": "cc.AnimationClip",
  "_name": "switchrl_i",
  "_objFlags": 0,
  "_native": "",
  "_duration": 0.016666666666666666,
  "sample": 60,
  "speed": 1,
  "wrapMode": 1,
  "curveData": {
    "comps": {
      "cc.Sprite": {
        "spriteFrame": [
          {
            "frame": 0,
            "value": {
              "__uuid__": "f4b86792-853c-48a2-a9e2-1c447b012e29"
            }
          }
        ]
      }
    }
  },
  "events": []
}