{
  "__type__": "cc.AnimationClip",
  "_name": "switchrl_e",
  "_objFlags": 0,
  "_native": "",
  "_duration": 0.016666666666666666,
  "sample": 60,
  "speed": 1,
  "wrapMode": 1,
  "curveData": {
    "comps": {
      "cc.Sprite": {
        "spriteFrame": [
          {
            "frame": 0,
            "value": {
              "__uuid__": "2fdda18d-171a-40df-9e9a-e03f6d8c8a44"
            }
          }
        ]
      }
    }
  },
  "events": []
}